,tas
2006,287.48276
2007,287.7168
2008,287.3379
2009,288.17654
2010,287.97052
2011,287.83047
2012,287.8023
2013,287.27155
2014,287.785
2015,287.7692
2016,287.86768
2017,287.54202
2018,287.97137
2019,287.61823
2020,288.04645
2021,288.01868
2022,288.22958
2023,288.23093
2024,287.90866
2025,288.3259
2026,288.6736
2027,287.658
2028,288.05496
2029,288.8451
2030,288.1418
2031,288.7132
2032,288.00983
2033,288.82605
2034,287.8519
2035,288.46555
2036,288.4987
2037,288.51025
2038,288.83868
2039,289.1488
2040,289.09174
2041,288.7005
2042,288.62103
2043,288.60745
2044,288.5357
2045,288.1919
2046,288.932
2047,288.75232
2048,289.1822
2049,289.49115
2050,289.1641
2051,289.00397
2052,289.38037
2053,288.80722
2054,289.40125
2055,288.92365
2056,289.52017
2057,289.46603
2058,289.46506
2059,289.1009
2060,289.6192
2061,289.977
2062,290.3339
2063,289.5238
2064,289.88358
2065,289.65347
2066,290.06705
2067,289.81213
2068,289.6899
2069,290.18567
2070,289.6338
2071,289.63864
2072,290.70685
2073,290.07877
2074,289.71075
2075,290.49496
2076,290.77652
2077,290.97864
2078,290.39212
2079,289.8801
2080,290.4523
2081,290.53867
2082,290.88116
2083,290.64645
2084,290.7973
2085,290.93658
2086,290.6585
2087,290.83682
2088,290.47745
2089,291.16516
2090,291.06873
2091,291.37103
2092,290.97696
2093,291.38464
2094,291.40253
2095,291.8287
2096,291.36154
2097,291.1235
2098,291.83173
2099,291.24133
2100,291.51706
